…
)glimpse(block_data)
#> Rows: 1
#> Columns: 11
#> $ request_time    <dttm> 2021-07-26 20:25:24
#> $ block_number    <chr> "31570498"
#> $ timestamp       <dttm> 2021-07-02
#> $ hash            <chr> "0000000001e1ba4267746fce622a90ba6a51f~
#> $ parent_hash     <chr> "0000000001e1ba4135f66566c15b648563d4b6~
#> $ tx_trie_root    <chr> "254pKSrGpmLT3y7xdFAaZfXR93ZrsKgRJoxZH~
#> $ confirmed       <lgl> TRUE
#> $ size            <int> 61119
#> $ witness_address <chr> "TLyqzVGLV1srkB7dToTAEqgDSfPtXRJZYH"
#> $ tx_count        <int> 200
#> $ tx              <list> [<tbl_df[200 x 4]>]block_data %>% select(tx) %>% unnest(cols = tx)
#> # A tibble: 200 x 4
#>    tx_id           contract_type   from_address    to_address    
#>    <chr>           <chr>           <chr>           <chr>         
#>  1 59ebe232ea5032~ VoteWitnessCon~ TXi4QTAWYGhF4Z~ TTcYhypP8m4ph~
#>  2 aff3e7fb7f277b~ TransferContra~ TRYavwpJnwhr9T~ TQMVcC2adh61t~
#>  3 8661b623b377a2~ TriggerSmartCo~ TRpzBAQHCVKHBW~ TBRs8xwajQVbD~
#>  4 ed437306b65880~ TransferAssetC~ TXAVuHVM1pBnZA~ TYBtHbJiQ2bDa~
#>  5 5a94ce1c7b0390~ TransferAssetC~ TAdqErGeD2CgTp~ TSnjNCyK3r58w~
#>  6 360999180f84eb~ TransferAssetC~ TAFpxz9pKyGDwr~ TPRiphADhwe1g~
#>  7 42a97206891117~ TransferAssetC~ TJABpJLWNXJ2xj~ TX8BumaUQ1bpR~
#>  8 baa45f5a4a18aa~ AccountCreateC~ TEoDHGSTu2Kh97~ TFLnMpKhGBUUo~
#>  9 614032934ce86c~ TransferContra~ TSWHGYtBwzpFXL~ TBy4dMk6nWhWV~
#> 10 01de787975ff49~ TransferContra~ TVU2khdDkUu67F~ TSEnu5xcNMyNi~
#> # ... with 190 more rows
```
…
这种内部交易分析的下一个合乎逻辑的步骤将涉及更好地理解不同账户之间的 TRX 流动，确定这些账户所属的实体等。我将把这作为一个练习留给读者。

# 相互作用的区块链地址形成一个网络

通常将区块链交易数据表示为网络(图)，其中地址作为节点，交易作为连接节点的边(参见示例[这里](https://medium.com/elliptic/the-elliptic-data-set-opening-up-machine-learning-on-the-blockchain-e0a343d99a14)和[这里](https://appliednetsci.springeropen.com/articles/10.1007/s41109-019-0249-6))。

例如，让我们看一下在研究的当天产生的第 10 个块的交易:

```
dat$tx[[10]]
#> # A tibble: 278 x 4
#>    tx_id           contract_type   from_address    to_address   
#>    <chr>           <chr>           <chr>           <chr>        
#>  1 85e2dc35e095d5~ TransferContra~ THXPAPiRd62EWk~ TV8oyJ4VEQgE~
#>  2 0733b9aea36aa5~ TransferAssetC~ TCjeJWKkiEgih2~ TA9uJrWuTueK~
#>  3 0c841ce6d571da~ TransferAssetC~ TP8BWU6dYD1fHc~ TSpnfuhALfLJ~
#>  4 51802e2f59cb7b~ TransferAssetC~ TAdTQUqsumn1NG~ TX6HKSS5VnUr~
#>  5 9e3b34b7f99a8f~ TransferContra~ TWq5u64ic279j8~ TM9H9cS6wZox~
#>  6 0820513585ac7b~ TriggerSmartCo~ TJZziktTWeCXgR~ TBRs8xwajQVb~
#>  7 5cc4dd58b3c25c~ TransferAssetC~ TLmqHdqkD5shgj~ TUrCM9mV41FN~
#>  8 a526124805cb6e~ TransferAssetC~ TEpyCakhKtwvtY~ TGmgoGskK3pX~
#>  9 4449d115da5c13~ TransferAssetC~ TWoJEZhqpJxzu7~ TNLAoWMw6WTk~
#> 10 03df1b68f2d7fa~ TransferAssetC~ TJFhAVZjBaCMvt~ TQ8M5KzRJRZi~
#> # ... with 268 more rows
```

首先，我们将通过(I)找到所有唯一的发送(`from_address`)和接收(`to_address`)地址对，以及(ii)计算每对的交易数量(边权重)来总结上述数据:

```
nb <- dat$tx[[10]] %>%
  group_by(from_address, to_address) %>%
  summarise(weight = n()) %>% 
  ungroup() %>%
  arrange(-weight)nb
#> # A tibble: 238 x 3
#>    from_address                to_address                 weight
#>    <chr>                       <chr>                       <int>
#>  1 TCd4rituYSmbeEDxXpDVF7ordH~ TSvin3om2vWuw5stbxTeDQrpq~     33
#>  2 TEoDHGSTu2Kh97HjCbbcEUaCTm~ TCcjjJ4v7zu6W4F1wwBhuc7EB~      2
#>  3 TJP3A9agR5CP31UE29mhFXK1wk~ TCXeYmM1g44qtRVEHbf9ehwgB~      2
#>  4 TNXscxfqxNtpaeUZKoEUkvEY5e~ TGsyWcVkFBxTknYzXGWvrZPaX~      2
#>  5 TP7NeoT2sM1hkpTuqNrvHorrRz~ TNmiCAm7Q38jKvWsrSRReREuy~      2
#>  6 TPaGwxVw7q26DCxRSGG9b2BNRB~ TTmdBHmoPqXE7EC22QtzPi2Ag~      2
#>  7 TTAct3jgaabAhxSvoZW9SAGVu4~ TWMiYQvrXuyQw5pk6Yt2L6oQF~      2
#>  8 TTfGseRet2nHfvi5KhPx9vCf6Q~ TA7oywPknyAewrq9bss7AzGGs~      2
#>  9 TTfGseRet2nHfvi5KhPx9vCf6Q~ TYYoV3GVuwjHkCYKfYRYwLjBb~      2
#> 10 TA1EHWb1PymZ1qpBNfNj9uTaxd~ TDyoqH6N91PAYrihFzE1VER7H~      1
#> # ... with 228 more rows
```
…
