…
这将返回 true，表明半连接与只包含表 a 中的列的内部连接相同。

我听到了，这很有用，但没那么疯狂。签出交叉联接:

```
30×4 DataFrame
 Row │ id     name    id_1   salary
     │ Int64  String  Int64  Int64
─────┼──────────────────────────────
   1 │     1  Alice       3    4078
   2 │     1  Alice       4    2395
   3 │     1  Alice       5    3662
   4 │     1  Alice       6    2202
   5 │     1  Alice       7    2564
   6 │     1  Alice       8    4545
   7 │     2  Bob         3    4078
   8 │     2  Bob         4    2395
   9 │     2  Bob         5    3662
  10 │     2  Bob         6    2202
  11 │     2  Bob         7    2564
  ⋮  │   ⋮      ⋮       ⋮      ⋮
  21 │     4  Daniel      5    3662
  22 │     4  Daniel      6    2202
  23 │     4  Daniel      7    2564
  24 │     4  Daniel      8    4545
  25 │     5  Edward      3    4078
  26 │     5  Edward      4    2395
  27 │     5  Edward      5    3662
  28 │     5  Edward      6    2202
  29 │     5  Edward      7    2564
  30 │     5  Edward      8    4545
                      9 rows omitted
```
…
