…
好吧，我保证有趣的部分来了。既然我们已经完成了枯燥的配置设置，我们可以继续建立连接并查询 Athena！

```
conn = DBInterface.connect(ODBC.Connection, connection_string)

# execute sql statement directly
# then materialize results in a DataFrame
df = DBInterface.execute(
    conn,
    sql
) |> DataFrame

297×3 DataFrame
 Row │ dt                       table_name  n_rows
     │ DateTime…?               String?     Int64?
─────┼────────────────────────────────────────────────
   1 │ 2021-05-08T06:46:24.183  Table_A     196040
   2 │ 2021-05-08T06:46:24.183  Table_B     28172242
   3 │ 2021-05-08T06:46:24.183  Table_C     27111764
   4 │ 2021-05-06T06:46:29.916  Table_A     196041
   5 │ 2021-05-06T06:46:29.916  Table_C     27080936
   6 │ 2021-05-23T06:46:26.201  Table_A     196034
  ⋮  │            ⋮                             ⋮
 293 │ 2021-03-03T14:47:56.910  Table_B     27421193
 294 │ 2021-03-03T14:47:56.910  Table_C     26379105
 295 │ 2021-04-27T06:46:34.887  Table_A     196046
 296 │ 2021-04-27T06:46:34.887  Table_B     28016354
 297 │ 2021-04-27T06:46:34.887  Table_C     26960853
                                286 rows omitted
```
…
